2019/12/11 11:02:34 [emerg] 11#11: host not found in upstream "nuxt" in /etc/nginx/sites-available/default.conf:43
2019/12/16 14:06:26 [error] 10#10: *1682 upstream timed out (110: Operation timed out) while reading upstream, client: 213.182.71.202, server: localhost, request: "GET /_loading/sse HTTP/1.1", upstream: "http://172.19.0.5:80/_loading/sse", host: "167.172.100.228", referrer: "http://167.172.100.228/"
2019/12/16 14:07:29 [error] 10#10: *1687 upstream timed out (110: Operation timed out) while reading upstream, client: 213.182.71.202, server: localhost, request: "GET /_loading/sse HTTP/1.1", upstream: "http://172.19.0.5:80/_loading/sse", host: "167.172.100.228", referrer: "http://167.172.100.228/"
2019/12/16 14:08:32 [error] 10#10: *1691 upstream timed out (110: Operation timed out) while reading upstream, client: 213.182.71.202, server: localhost, request: "GET /_loading/sse HTTP/1.1", upstream: "http://172.19.0.5:80/_loading/sse", host: "167.172.100.228", referrer: "http://167.172.100.228/"
2019/12/16 14:09:35 [error] 10#10: *1693 upstream timed out (110: Operation timed out) while reading upstream, client: 213.182.71.202, server: localhost, request: "GET /_loading/sse HTTP/1.1", upstream: "http://172.19.0.5:80/_loading/sse", host: "167.172.100.228", referrer: "http://167.172.100.228/"
2019/12/16 14:10:38 [error] 10#10: *1695 upstream timed out (110: Operation timed out) while reading upstream, client: 213.182.71.202, server: localhost, request: "GET /_loading/sse HTTP/1.1", upstream: "http://172.19.0.5:80/_loading/sse", host: "167.172.100.228", referrer: "http://167.172.100.228/"
2019/12/16 14:11:41 [error] 10#10: *1697 upstream timed out (110: Operation timed out) while reading upstream, client: 213.182.71.202, server: localhost, request: "GET /_loading/sse HTTP/1.1", upstream: "http://172.19.0.5:80/_loading/sse", host: "167.172.100.228", referrer: "http://167.172.100.228/"
2019/12/16 14:12:45 [error] 10#10: *1699 upstream timed out (110: Operation timed out) while reading upstream, client: 213.182.71.202, server: localhost, request: "GET /_loading/sse HTTP/1.1", upstream: "http://172.19.0.5:80/_loading/sse", host: "167.172.100.228", referrer: "http://167.172.100.228/"
2019/12/16 14:13:48 [error] 10#10: *1701 upstream timed out (110: Operation timed out) while reading upstream, client: 213.182.71.202, server: localhost, request: "GET /_loading/sse HTTP/1.1", upstream: "http://172.19.0.5:80/_loading/sse", host: "167.172.100.228", referrer: "http://167.172.100.228/"
2019/12/16 14:14:51 [error] 10#10: *1703 upstream timed out (110: Operation timed out) while reading upstream, client: 213.182.71.202, server: localhost, request: "GET /_loading/sse HTTP/1.1", upstream: "http://172.19.0.5:80/_loading/sse", host: "167.172.100.228", referrer: "http://167.172.100.228/"
2019/12/16 14:15:54 [error] 10#10: *1705 upstream timed out (110: Operation timed out) while reading upstream, client: 213.182.71.202, server: localhost, request: "GET /_loading/sse HTTP/1.1", upstream: "http://172.19.0.5:80/_loading/sse", host: "167.172.100.228", referrer: "http://167.172.100.228/"
2019/12/16 14:16:57 [error] 10#10: *1707 upstream timed out (110: Operation timed out) while reading upstream, client: 213.182.71.202, server: localhost, request: "GET /_loading/sse HTTP/1.1", upstream: "http://172.19.0.5:80/_loading/sse", host: "167.172.100.228", referrer: "http://167.172.100.228/"
2019/12/16 14:18:00 [error] 10#10: *1709 upstream timed out (110: Operation timed out) while reading upstream, client: 213.182.71.202, server: localhost, request: "GET /_loading/sse HTTP/1.1", upstream: "http://172.19.0.5:80/_loading/sse", host: "167.172.100.228", referrer: "http://167.172.100.228/"
2019/12/16 14:19:03 [error] 10#10: *1711 upstream timed out (110: Operation timed out) while reading upstream, client: 213.182.71.202, server: localhost, request: "GET /_loading/sse HTTP/1.1", upstream: "http://172.19.0.5:80/_loading/sse", host: "167.172.100.228", referrer: "http://167.172.100.228/"
2019/12/17 08:09:10 [error] 10#10: *1801 upstream timed out (110: Operation timed out) while reading upstream, client: 213.182.71.202, server: localhost, request: "GET /_loading/sse HTTP/1.1", upstream: "http://172.19.0.5:80/_loading/sse", host: "167.172.100.228", referrer: "http://167.172.100.228/"
2019/12/17 08:10:13 [error] 10#10: *1805 upstream timed out (110: Operation timed out) while reading upstream, client: 213.182.71.202, server: localhost, request: "GET /_loading/sse HTTP/1.1", upstream: "http://172.19.0.5:80/_loading/sse", host: "167.172.100.228", referrer: "http://167.172.100.228/"
2019/12/17 08:11:16 [error] 10#10: *1809 upstream timed out (110: Operation timed out) while reading upstream, client: 213.182.71.202, server: localhost, request: "GET /_loading/sse HTTP/1.1", upstream: "http://172.19.0.5:80/_loading/sse", host: "167.172.100.228", referrer: "http://167.172.100.228/"
2019/12/17 08:12:19 [error] 10#10: *1811 upstream timed out (110: Operation timed out) while reading upstream, client: 213.182.71.202, server: localhost, request: "GET /_loading/sse HTTP/1.1", upstream: "http://172.19.0.5:80/_loading/sse", host: "167.172.100.228", referrer: "http://167.172.100.228/"
2019/12/17 08:13:22 [error] 10#10: *1813 upstream timed out (110: Operation timed out) while reading upstream, client: 213.182.71.202, server: localhost, request: "GET /_loading/sse HTTP/1.1", upstream: "http://172.19.0.5:80/_loading/sse", host: "167.172.100.228", referrer: "http://167.172.100.228/"
2019/12/17 08:14:25 [error] 10#10: *1815 upstream timed out (110: Operation timed out) while reading upstream, client: 213.182.71.202, server: localhost, request: "GET /_loading/sse HTTP/1.1", upstream: "http://172.19.0.5:80/_loading/sse", host: "167.172.100.228", referrer: "http://167.172.100.228/"
2019/12/17 08:15:28 [error] 10#10: *1819 upstream timed out (110: Operation timed out) while reading upstream, client: 213.182.71.202, server: localhost, request: "GET /_loading/sse HTTP/1.1", upstream: "http://172.19.0.5:80/_loading/sse", host: "167.172.100.228", referrer: "http://167.172.100.228/"
2020/01/07 18:12:51 [error] 10#10: *7687 upstream timed out (110: Operation timed out) while reading upstream, client: 93.70.125.37, server: localhost, request: "GET /_loading/sse HTTP/1.1", upstream: "http://172.19.0.5:80/_loading/sse", host: "167.172.100.228", referrer: "http://167.172.100.228/"
2020/01/07 18:13:54 [error] 10#10: *7690 upstream timed out (110: Operation timed out) while reading upstream, client: 93.70.125.37, server: localhost, request: "GET /_loading/sse HTTP/1.1", upstream: "http://172.19.0.5:80/_loading/sse", host: "167.172.100.228", referrer: "http://167.172.100.228/"
2020/01/07 18:14:57 [error] 10#10: *7692 upstream timed out (110: Operation timed out) while reading upstream, client: 93.70.125.37, server: localhost, request: "GET /_loading/sse HTTP/1.1", upstream: "http://172.19.0.5:80/_loading/sse", host: "167.172.100.228", referrer: "http://167.172.100.228/"
